<?xml version="1.0" standalone="no"?>
<!DOCTYPE svg PUBLIC "-//W3C//DTD SVG 1.1//EN" "http://www.w3.org/Graphics/SVG/1.1/DTD/svg11.dtd" >
<svg xmlns="http://www.w3.org/2000/svg">
<metadata>Generated by IcoMoon</metadata>
<defs>
<font id="icomoon" horiz-adv-x="1024">
<font-face units-per-em="1024" ascent="960" descent="-64" />
<missing-glyph horiz-adv-x="1024" />
<glyph unicode="&#x20;" horiz-adv-x="512" d="" />
<glyph unicode="&#xe900;" d="M510.242 858.73l-190.259-73.796c3.094-7.983 6.168-15.991 9.326-23.951l177.6 68.884 187.259-70.207c3.477 8.725 6.839 17.521 10.237 26.276zM160.653 661.82v-315.723l134.089-150.933c5.16 3.83 10.694 7.237 16.525 10.205l-101.831 114.625v259.957c-0.732 1.046-1.482 2.152-2.262 3.351-2.879 4.425-5.869 9.181-8.149 14.738-1.14 2.778-2.529 5.466-2.332 11.243 0.047 1.372 0.287 3.089 0.825 4.91-4.079 2.392-7.782 5.379-10.884 8.539-6.867 6.996-13.888 15.775-19.172 25.422-2.162 3.948-4.691 8.603-6.809 13.665zM862.973 660.947c-2.039-4.723-4.399-9.073-6.436-12.792-5.284-9.647-12.303-18.426-19.17-25.422-3.101-3.16-6.805-6.146-10.884-8.538 0.537-1.822 0.776-3.538 0.823-4.91 0.197-5.778-1.192-8.467-2.332-11.245-2.28-5.556-5.271-10.313-8.149-14.738-1.007-1.548-1.959-2.919-2.885-4.215v-246.831c3.073-4.601 5.949-9.21 8.662-13.741 1.646-2.749 3.211-5.569 4.709-8.446l35.663 41.254zM363.591 146.475c-7.008-1.006-13.74-3.156-19.901-6.407l170.634-192.068 68.133 78.818c-7.32 2.005-14.551 4.461-21.655 7.366l-48.062-55.598z" />
<glyph unicode="&#xe901;" d="M470.452 652.528l10.782-37.855c2.115-7.426 1.532-19.057-1.4-26.047l-28.529-68.026c-15.295-36.472-14.265-54.685 5.803-76.495l54.892-59.655 54.89 59.655c20.068 21.81 21.1 40.023 5.805 76.495l-28.529 68.026c-2.932 6.991-3.514 18.621-1.4 26.047l10.78 37.855-41.547-21.007zM512.001 620.135c3.682 0 7.017-1.167 9.434-3.058 0.271-0.212 0.526-0.435 0.773-0.665l-10.207-18.25-10.207 18.25c0.247 0.229 0.502 0.453 0.773 0.665 2.417 1.891 5.752 3.058 9.434 3.058zM556.673 710.904l51.306 20.783-21.010-55.436-69.971-35.449zM467.327 710.904l-51.306 20.783 21.010-55.436 69.971-35.449zM479.404 713.591l32.655 79.338 32.537-79.338-32.537-65.314zM542.371 400.757l-30.368-32.938-20.622 22.366c13.487-38.24 28.838-64.182 44.869-81.481 39.005-42.088 96.62-36.378 122.113-30.586 39.981 9.084 68.164 19.953 104.405 13.338 67.369-12.295 67.821-61.77 68.090-108.34 10.269 57.613 1.354 97.864-17.727 129.727s-43.476 64.621-92.677 72.44c-24.578 3.906-46.734-2.267-70.14-9.889-45.21-14.721-59.244-9.411-71.060-5.979-19.443 5.646-27.347 17.191-36.883 31.34zM743.665 281.509c-36.564-75.653-71.936-98.744-106.229-117.224-76.216-41.072-134.305-6.523-180.492 20.724-93.059 54.898-197.519 8.29-193.029-77.278 1.845-35.167-1.254-73.787-48.834-64.139 20.761-31.133 70.872-12.096 73.293 28.151 7.52-13.971 11.978-20.29 17.496-24.459-18.907 67.773 18.071 106.814 60.162 110.586 41.979 3.761 93.187-24.077 131.834-66.279 94.991-103.73 250.499-69.84 318.729 66.329 4.919 29.364 1.491 71.045-5.629 87.439-7.174 16.519-19.461 28.653-50.352 34.29-5.879 1.073-11.479 1.66-16.947 1.861zM659.429 505.932c-1.025 1.347-4.363 5.903-11.886 18.188l-17.712 28.922 2.305 1.35c0 0 26.074-27.268 31.491-32.741 4.405-4.451 11.441-10.913 19.663-11 9.2-0.098 17.802 3.729 25.503 8.299 6.124 3.634 14.851 10.124 12.447 12.844-1.99 2.251-4.488 3.423-22.368 18.703l-27.413 23.429 1.042 1.445 37.982-22.41c5.962-3.518 14.193-8.269 22.221-12.453 3.451-1.659 7.577-2.356 10.084-1.446 5.583 2.026 9.711 4.188 15.148 8.245 7.412 5.532 17.239 14.456 12.832 15.458-2.48 0.564-7.097 2.425-29.845 14.021l-39.562 20.168 0.853 2.003 43.605-13.581c9.657-3.008 17.512-5.49 23.448-6.536 6.219-1.095 9.538-2.427 13.636-2.308 3.34 0.097 7.44 1.562 9.973 3.583 3.19 2.547 4.558 3.741 10.072 12.216 5.232 8.043 10.603 17.834 6.171 18.331-2.422 0.271-8.556 0.598-35.006 6.85l-42.081 9.947 0.103 2.039 50.64-3.306c27.559-1.799 32.288-2.545 42.776 8.141 5.853 5.963 12.203 13.996 16.465 21.777 5.325 9.722 12.837 24.886 5.286 22.649-3.841-1.138-16.432-4.136-58.109-5.712l-38.534-1.062 0.165 1.995 57.503 8.382c31.705 4.621 45.318 9.946 50.193 13.799 5.289 4.182 14.947 14.789 22.619 29.42 9.353 17.84 20.040 42.269 12.844 37.896-2.846-1.729-18.411-9.696-55.259-19.982l-65.206-18.203-0.311 2.046 61.676 22.326c17.735 6.42 28.98 11.092 38.172 15.134 7.672 3.374 25.249 11.375 31.147 17.279 7.164 7.171 13.784 22.301 18.236 32.353 7.297 16.475 12.523 31.525 6.679 27.404-3.014-2.125-28.403-14.154-75.168-33.047l-64.883-26.214-0.134 1.66 74.543 37.743c29.71 15.043 54.885 29.010 70.293 38.486 13.047 8.023 23.749 22.88 33.662 42.858 7.345 14.802 12.245 35.237 12.245 35.237l1.564 9.441c0 0-7.441-5.543-11.096-8.049-20.261-13.893-205.723-102.195-205.723-102.195-0.719 1.2 1.121 6.119 4.924 10.46 5.316 6.067 12.383 12.908 19.646 17.869 6.205 4.238 18.387 11.786 26.704 15.792 9.663 4.654 20.538 9.327 38.824 15.45l-0.461 1.376c-14.039-2.609-24.036-4.576-35.346-8.827-14.146-5.318-30.515-14.444-40.126-20.657-9.668-6.25-26.963-20.703-36.305-38.126-15.102-28.164-25.921-62.859-40.543-96.375s-22.909-47.888-43.281-73.923c-4.141-0.204-7.417-0.693-10.905-1.555-22.408-5.538-47.836-18.722-66.966-33.519-10.165-7.863-14.678-15.736-17.306-26.199-1.195-4.755-0.689-10.821 0.379-13.909 9.41-27.232 28.993-59.688 50.028-82.576 2.253-2.451 10.35-9.829 14.833-10.348 13.822-1.599 34.408 8.645 30.909 13.242zM364.571 505.931c1.025 1.347 4.363 5.903 11.886 18.188l17.712 28.922-2.305 1.35c0 0-26.074-27.268-31.491-32.741-4.405-4.451-11.441-10.913-19.663-11-9.2-0.098-17.802 3.729-25.503 8.299-6.124 3.634-14.851 10.124-12.447 12.844 1.99 2.251 4.488 3.423 22.368 18.703l27.413 23.429-1.042 1.445-37.982-22.41c-5.962-3.518-14.193-8.269-22.221-12.453-3.451-1.659-7.577-2.356-10.084-1.446-5.583 2.026-9.711 4.188-15.148 8.245-7.412 5.532-17.239 14.456-12.832 15.458 2.48 0.564 7.097 2.425 29.845 14.021l39.562 20.168-0.853 2.003-43.605-13.581c-9.656-3.008-17.512-5.49-23.448-6.536-6.219-1.095-9.538-2.427-13.636-2.308-3.34 0.097-7.44 1.562-9.973 3.583-3.19 2.547-4.558 3.741-10.072 12.216-5.232 8.043-10.603 17.834-6.171 18.331 2.422 0.271 8.556 0.598 35.006 6.85l42.081 9.947-0.103 2.039-50.64-3.306c-27.559-1.799-32.288-2.545-42.777 8.141-5.853 5.963-12.203 13.996-16.465 21.777-5.325 9.722-12.837 24.886-5.286 22.649 3.84-1.138 16.432-4.136 58.109-5.712l38.534-1.062-0.165 1.995-57.503 8.382c-31.705 4.621-45.318 9.946-50.193 13.799-5.289 4.182-14.947 14.789-22.619 29.42-9.353 17.84-20.040 42.269-12.844 37.896 2.846-1.729 18.411-9.696 55.259-19.982l65.206-18.203 0.311 2.046-61.676 22.326c-17.735 6.42-28.98 11.092-38.172 15.134-7.672 3.374-25.249 11.375-31.147 17.279-7.164 7.171-13.784 22.301-18.236 32.353-7.297 16.475-12.523 31.525-6.679 27.404 3.014-2.125 28.403-14.154 75.168-33.047l64.883-26.214 0.134 1.66-74.543 37.743c-29.71 15.043-54.885 29.010-70.294 38.486-13.047 8.023-23.749 22.88-33.662 42.858-7.345 14.802-12.245 35.237-12.245 35.237l-1.564 9.441c0 0 7.441-5.543 11.096-8.049 20.261-13.893 205.723-102.195 205.723-102.195 0.719 1.2-1.121 6.119-4.924 10.46-5.316 6.067-12.383 12.908-19.647 17.869-6.205 4.238-18.387 11.786-26.704 15.792-9.663 4.654-20.538 9.327-38.824 15.45l0.461 1.376c14.039-2.609 24.036-4.576 35.346-8.827 14.146-5.318 30.515-14.444 40.126-20.657 9.668-6.25 26.963-20.703 36.305-38.126 15.102-28.164 25.921-62.859 40.543-96.375s22.909-47.888 43.281-73.923c4.141-0.204 7.417-0.693 10.905-1.555 22.408-5.538 47.836-18.722 66.966-33.519 10.165-7.863 14.678-15.736 17.306-26.199 1.195-4.755 0.689-10.821-0.379-13.909-9.41-27.232-28.993-59.688-50.028-82.576-2.253-2.451-10.35-9.829-14.833-10.348-13.822-1.599-34.408 8.645-30.909 13.242z" />
<glyph unicode="&#xe902;" glyph-name="discord-logo" horiz-adv-x="1045" d="M445.44 516.693c-24.32 0-43.52-21.333-43.52-47.36s19.627-47.36 43.52-47.36c24.32 0 43.52 21.333 43.52 47.36 0.427 26.027-19.2 47.36-43.52 47.36zM601.173 516.693c-24.32 0-43.52-21.333-43.52-47.36s19.627-47.36 43.52-47.36c24.32 0 43.52 21.333 43.52 47.36s-19.2 47.36-43.52 47.36zM808.533 874.667h-571.733c-48.213 0-87.467-39.253-87.467-87.893v-576.853c0-48.64 39.253-87.893 87.467-87.893h483.84l-22.613 78.933 54.613-50.773 51.627-47.787 91.733-81.067v765.44c0 48.64-39.253 87.893-87.467 87.893zM643.84 317.44s-15.36 18.347-28.16 34.56c55.893 15.787 77.227 50.773 77.227 50.773-17.493-11.52-34.133-19.627-49.067-25.173-21.333-8.96-41.813-14.933-61.867-18.347-40.96-7.68-78.507-5.547-110.507 0.427-24.32 4.693-45.227 11.52-62.72 18.347-9.813 3.84-20.48 8.533-31.147 14.507-1.28 0.853-2.56 1.28-3.84 2.133-0.853 0.427-1.28 0.853-1.707 1.28-7.68 4.267-11.947 7.253-11.947 7.253s20.48-34.133 74.667-50.347c-12.8-16.213-28.587-35.413-28.587-35.413-94.293 2.987-130.133 64.853-130.133 64.853 0 137.387 61.44 248.747 61.44 248.747 61.44 46.080 119.893 44.8 119.893 44.8l4.267-5.12c-76.8-22.187-112.213-55.893-112.213-55.893s9.387 5.12 25.173 12.373c45.653 20.053 81.92 25.6 96.853 26.88 2.56 0.427 4.693 0.853 7.253 0.853 26.027 3.413 55.467 4.267 86.187 0.853 40.533-4.693 84.053-16.64 128.427-40.96 0 0-33.707 32-106.24 54.187l5.973 6.827s58.453 1.28 119.893-44.8c0 0 61.44-111.36 61.44-248.747 0 0-36.267-61.867-130.56-64.853z" />
</font></defs></svg>